…
    read_xlsx(
        path = path_to_data,
        sheet = "Mr. Trash Wheel",
        range = cell_cols("A:N")) %>% 
    janitor::clean_names() %>% 
    drop_na(dumpster) %>% 
    mutate(
        sports_balls = round(sports_balls, digits = 0),
        sports_balls = as.integer(sports_balls)
    ) %>% 
  relocate(dumpster,month,year,date,sports_balls)
trashwheel_df
```

    ## # A tibble: 344 x 14
    ##    dumpster month  year date                sports_balls weight_tons
    ##       <dbl> <chr> <dbl> <dttm>                     <int>       <dbl>
    ##  1        1 May    2014 2014-05-16 00:00:00            7        4.31
    ##  2        2 May    2014 2014-05-16 00:00:00            5        2.74
    ##  3        3 May    2014 2014-05-16 00:00:00            6        3.45
    ##  4        4 May    2014 2014-05-17 00:00:00            6        3.1 
    ##  5        5 May    2014 2014-05-17 00:00:00            7        4.06
    ##  6        6 May    2014 2014-05-20 00:00:00            5        2.71
    ##  7        7 May    2014 2014-05-21 00:00:00            3        1.91
    ##  8        8 May    2014 2014-05-28 00:00:00            6        3.7 
    ##  9        9 June   2014 2014-06-05 00:00:00            6        2.52
    ## 10       10 June   2014 2014-06-11 00:00:00            7        3.76
    ## # … with 334 more rows, and 8 more variables: volume_cubic_yards <dbl>,
    ## #   plastic_bottles <dbl>, polystyrene <dbl>, cigarette_butts <dbl>,
    ## #   glass_bottles <dbl>, grocery_bags <dbl>, chip_bags <dbl>,
    ## #   homes_powered <dbl>
